%YAML 1.1
%TAG !u! tag:unity3d.com,2011:
--- !u!21 &2100000
Material:
  serializedVersion: 8
  m_ObjectHideFlags: 0
  m_CorrespondingSourceObject: {fileID: 0}
  m_PrefabInstance: {fileID: 0}
  m_PrefabAsset: {fileID: 0}
  m_Name: Mat_Cloud_MovingPlatfrom
  m_Shader: {fileID: 4800000, guid: efcaf526ceb1f4efd9eb4e4c30c6ade6, type: 3}
  m_ValidKeywords:
  - _COLORMODE_LINEAR
  - _FOAMMODE_GRADIENT_NOISE
  - _WAVEMODE_ROUND
  m_InvalidKeywords:
  - _OPAQUE_OFF
  m_LightmapFlags: 0
  m_EnableInstancingVariants: 0
  m_DoubleSidedGI: 0
  m_CustomRenderQueue: 3000
  stringTagMap:
    RenderType: Transparent
  disabledShaderPasses: []
  m_SavedProperties:
    serializedVersion: 3
    m_TexEnvs:
    - _BotTexture0:
        m_Texture: {fileID: 2800000, guid: 555b6a287b4121b479d412e6ea92bb2e, type: 3}
        m_Scale: {x: 1, y: 1}
        m_Offset: {x: 0, y: 0}
    - _BumpMap:
        m_Texture: {fileID: 0}
        m_Scale: {x: 1, y: 1}
        m_Offset: {x: 0, y: 0}
    - _ColorGradient:
        m_Texture: {fileID: 0}
        m_Scale: {x: 1, y: 1}
        m_Offset: {x: 0, y: 0}
    - _DetailAlbedoMap:
        m_Texture: {fileID: 0}
        m_Scale: {x: 1, y: 1}
        m_Offset: {x: 0, y: 0}
    - _DetailMask:
        m_Texture: {fileID: 0}
        m_Scale: {x: 1, y: 1}
        m_Offset: {x: 0, y: 0}
    - _DetailNormalMap:
        m_Texture: {fileID: 0}
        m_Scale: {x: 1, y: 1}
        m_Offset: {x: 0, y: 0}
    - _EmissionMap:
        m_Texture: {fileID: 0}
        m_Scale: {x: 1, y: 1}
        m_Offset: {x: 0, y: 0}
    - _MainTex:
        m_Texture: {fileID: 0}
        m_Scale: {x: 1, y: 1}
        m_Offset: {x: 0, y: 0}
    - _MetallicGlossMap:
        m_Texture: {fileID: 0}
        m_Scale: {x: 1, y: 1}
        m_Offset: {x: 0, y: 0}
    - _MidTexture0:
        m_Texture: {fileID: 2800000, guid: 94cd628d3d8e07d40a85d82b3fdad15d, type: 3}
        m_Scale: {x: 1, y: 1}
        m_Offset: {x: 0, y: 0}
    - _NoiseMap:
        m_Texture: {fileID: 0}
        m_Scale: {x: 1, y: 1}
        m_Offset: {x: 0, y: 0}
    - _OcclusionMap:
        m_Texture: {fileID: 0}
        m_Scale: {x: 1, y: 1}
        m_Offset: {x: 0, y: 0}
    - _ParallaxMap:
        m_Texture: {fileID: 0}
        m_Scale: {x: 1, y: 1}
        m_Offset: {x: 0, y: 0}
    - _TopTexture0:
        m_Texture: {fileID: 10307, guid: 0000000000000000f000000000000000, type: 0}
        m_Scale: {x: 1, y: 1}
        m_Offset: {x: 0, y: 0}
    - _TopTexture1:
        m_Texture: {fileID: 0}
        m_Scale: {x: 1, y: 1}
        m_Offset: {x: 0, y: 0}
    - _texcoord:
        m_Texture: {fileID: 0}
        m_Scale: {x: 1, y: 1}
        m_Offset: {x: 0, y: 0}
    - unity_Lightmaps:
        m_Texture: {fileID: 0}
        m_Scale: {x: 1, y: 1}
        m_Offset: {x: 0, y: 0}
    - unity_LightmapsInd:
        m_Texture: {fileID: 0}
        m_Scale: {x: 1, y: 1}
        m_Offset: {x: 0, y: 0}
    - unity_ShadowMasks:
        m_Texture: {fileID: 0}
        m_Scale: {x: 1, y: 1}
        m_Offset: {x: 0, y: 0}
    m_Ints: []
    m_Floats:
    - Vector1_52A42014: 1.7
    - Vector1_71637B18: 0.1
    - Vector1_A1BE6EF4: 1.27
    - _Bias: 0
    - _BlendOffset: 0
    - _BlendScale: 0
    - _BlendTransitionOffset: -0.27
    - _BlendTransitionRatio: 2.73
    - _BumpScale: 1
    - _ColorMode: 0
    - _ColorNoiseScale: 0.58
    - _ColorNoiseValue: 0.06
    - _CrestSharpness: 0.1
    - _CrestSize: 0.1
    - _Cutoff: 0.5
    - _DeformationNoiseScale: 1.09
    - _DeformationNoiseValue: 0.47
    - _DeformationScale: 0.1
    - _DetailNormalMapScale: 1
    - _DstBlend: 0
    - _EdgeLength: 4.8
    - _FadeDistance: 0.5
    - _Float0: 0.72
    - _Float1: 0.83
    - _Float10: -0.59
    - _Float2: 0.1
    - _Float3: 1.62
    - _Float4: 0.54
    - _Float5: 0.07
    - _Float6: 0.06
    - _Float7: 0.23
    - _Float8: 1.04
    - _Float9: 1.37
    - _FoamAmount: 0.25
    - _FoamDepth: 0.5
    - _FoamDirection: 0
    - _FoamMode: 1
    - _FoamNoiseAmount: 1
    - _FoamScale: 1
    - _FoamSharpness: 0.5
    - _FoamSpeed: 0.1
    - _FoamStretchX: 1
    - _FoamStretchY: 1
    - _GlossMapScale: 1
    - _Glossiness: 0.5
    - _GlossyReflections: 1
    - _LightContribution: 0
    - _Metallic: 0
    - _Mode: 0
    - _NoiseColorScale: 0.03
    - _NoiseSize: 0.99
    - _NoiseSize1: 1.04
    - _OcclusionStrength: 1
    - _Opaque: 0
    - _Parallax: 0.02
    - _Power: 1.13
    - _QueueControl: -1
    - _QueueOffset: 0
    - _RefractionAmplitude: 0.01
    - _RefractionFrequency: 35
    - _RefractionScale: 1
    - _RefractionSpeed: 0.1
    - _Scale: 0.58
    - _ShadowStrength: 0.35
    - _SmoothnessTextureChannel: 0
    - _SpecularHighlights: 1
    - _SrcBlend: 1
    - _UVSec: 0
    - _WaterClearness: 0.3
    - _WaterDepth: 5
    - _WaveAmplitude: 0.25
    - _WaveDirection: 0
    - _WaveFrequency: 1
    - _WaveMode: 1
    - _WaveNoise: 0.25
    - _WaveSpeed: 0.5
    - _YDeformation: 0.11
    - _YLerpConstant: 0
    - _ZWrite: 0
    - __dirty: 0
    m_Colors:
    - Color_9C052003: {r: 0.4901961, g: 0.35686275, b: 0.73333335, a: 0}
    - Color_BC334B1A: {r: 0, g: 0.19209051, b: 1, a: 1}
    - Color_BDAC7A53: {r: 0.6815165, g: 0.66847634, b: 0.6981132, a: 0}
    - _Albedo: {r: 0.3018868, g: 0.3018868, b: 0.3018868, a: 0}
    - _BlendColor: {r: 0.09159712, g: 0.019579919, b: 0.8301887, a: 0}
    - _BlendColor1: {r: 1, g: 0, b: 0, a: 0}
    - _BlendColor2: {r: 0.34715375, g: 0.8679245, b: 0.20060521, a: 0}
    - _Color: {r: 1, g: 1, b: 1, a: 1}
    - _Color0: {r: 1, g: 1, b: 1, a: 1}
    - _Color1: {r: 0, g: 0, b: 0, a: 1}
    - _Color2: {r: 0.990566, g: 0.76161444, b: 0.76161444, a: 1}
    - _Color3: {r: 0.8207547, g: 0.8207547, b: 0.8207547, a: 1}
    - _Color6: {r: 0.8160377, g: 0.9723464, b: 1, a: 1}
    - _Color7: {r: 0.7607843, g: 0.9113596, b: 1, a: 1}
    - _ColorDeep: {r: 0.1792453, g: 0.110590965, b: 0.110590965, a: 1}
    - _ColorShallow: {r: 0.35, g: 0.6, b: 0.75, a: 0.8}
    - _CrestColor: {r: 1, g: 1, b: 1, a: 0.9}
    - _EmissionColor: {r: 0, g: 0, b: 0, a: 1}
    - _FoamColor: {r: 1, g: 1, b: 1, a: 1}
    - _FresnelColor: {r: 0.21333215, g: 0.862697, b: 0.9622642, a: 1}
    - _HighLight: {r: 0.9433962, g: 0.8761887, b: 0.33374867, a: 1}
    - _NoiseColor: {r: 0.9247619, g: 0.990566, b: 0.051397298, a: 1}
    - _SummedBlend: {r: 0.73, g: 0.03, b: 0, a: 0}
    - _SummedWeight: {r: 1, g: 0.5, b: 0, a: 0}
    - _TimeOffset: {r: 0.3, g: 0.3, b: 0, a: 0}
    - _TimeOffset1: {r: 0.46, g: 0.43, b: 0, a: 0}
    - _TopColor: {r: 0.5198992, g: 0.09620863, b: 0.8867924, a: 0}
    - _Vector0: {r: 0.11, g: 0.56, b: 0.33, a: 0}
    - _Vector1: {r: 0.65, g: 0.35, b: 0, a: 0}
  m_BuildTextureStacks: []
--- !u!114 &5624128929654222900
MonoBehaviour:
  m_ObjectHideFlags: 11
  m_CorrespondingSourceObject: {fileID: 0}
  m_PrefabInstance: {fileID: 0}
  m_PrefabAsset: {fileID: 0}
  m_GameObject: {fileID: 0}
  m_Enabled: 1
  m_EditorHideFlags: 0
  m_Script: {fileID: 11500000, guid: d0353a89b1f911e48b9e16bdc9f2e058, type: 3}
  m_Name: 
  m_EditorClassIdentifier: 
  version: 5
